bgu\cmd\GUIClient$5.class
bgu\cmd\GUIClient$GUIClientLayout.class
bgu\cmd\OptionsGUI.class
bgu\cmd\Receiver.class
bgu\cmd\ResultsContainer.class
bgu\cmd\optionsLayout.class
bgu\cmd\GUIClient$JTextFieldInputStream$1.class
bgu\cmd\GUIClient$JTextFieldInputStream.class
bgu\cmd\SimplifyCommand.class
bgu\cmd\GUIClient$3.class
bgu\cmd\TranslateMinusCommand.class
bgu\cmd\OptionsGUI$2.class
bgu\cmd\CommandImpl.class
bgu\cmd\FindCirclesCommand.class
bgu\cmd\TranslateCommand.class
bgu\cmd\DetectCommand.class
bgu\cmd\GUIClient$2.class
bgu\cmd\GUIClient.class
bgu\cmd\GUIClient$1.class
bgu\cmd\OptionsGUI$1.class
bgu\cmd\CommandLineManualClient.class
bgu\cmd\CommandLineClient.class
bgu\cmd\IdentifyCommand.class
bgu\cmd\PropogateCommand.class
bgu\cmd\GUIClient$4.class
